{
	"components" : [
	{
	"id" : "SlaManager",
	"name" :  "Sla Manager",
	"base_path" : "http://localhost:8080/sla-manager",
	"requests" : [{
		"path" : "/cloud-sla/slas",
		"methods" : [
		{
			"type":"GET",
			"content_type":"",  
			"visualization_type":"XML",
			"body_file_name":"",
			"query_params":["state","customer","annotationKey","annotationValue","items","page","length"]
		},
		{
			"type":"POST",
			"content_type":"text/xml",
			"visualization_type":"RAW",
			"body_file_name":"SLA_EXAMPLE.xml"
		},
		{
			"type":"DELETE",
			"content_type":"text/xml",
			"visualization_type":"RAW",
			"body_file_name":""
		}]
	}]
	},
	{
	"id" : "ServicesManager",
	"name" :  "Services Manager",
	"base_path" : "http://localhost:8080/service-manager",
	"requests" : [{
		"path" : "/cloud-sla/security-mechanisms",
		"methods" : [
		{
			"type":"GET",
			"content_type":"",
			"visualization_type":"JSON",  
			"body_file_name":"",
			"query_params":["metric_id","capability_id"]
		},
		{
			"type":"POST",
			"content_type":"text/plain",
			"visualization_type":"RAW",  
			"body_file_name":"SEC_MECHANISM_EXAMPLE.json"
		},
		{
			"type":"DELETE",
			"content_type":"text/xml",
			"visualization_type":"RAW",
			"body_file_name":""
		}]
	  },
		{
		"path" : "/cloud-sla/security-capabilities",
		"methods" : [
		{
			"type":"GET",
			"content_type":"",
			"visualization_type":"JSON",  
			"body_file_name":""
		},
		{
			"type":"POST",
			"content_type":"text/plain",
			"visualization_type":"RAW",  
			"body_file_name":"SEC_CAPABILITY_EXAMPLE.xml"
		}]
	}]
	}
	]
}